[gd_scene load_steps=4 format=3 uid="uid://c3v2cfw1olmly"]

[sub_resource type="TileMapPattern" id="TileMapPattern_htu13"]
tile_data = PackedInt32Array(0, 327681, 0, 1, 393217, 0, 2, 458753, 0)

[sub_resource type="TileSetAtlasSource" id="TileSetAtlasSource_gjqgm"]
resource_name = "tutorial1"
texture_region_size = Vector2i(64, 64)
0:0/0 = 0
0:0/0/terrain_set = 0
0:0/0/terrain = 1
0:0/0/probability = 0.7
0:0/0/physics_layer_0/linear_velocity = Vector2(0, 0)
0:0/0/physics_layer_0/angular_velocity = 0.0
0:0/0/physics_layer_0/polygon_0/points = PackedVector2Array(-32, -32, 32, -32, 32, 32, -32, 32)
0:0/0/terrains_peering_bit/right_side = 1
0:0/0/terrains_peering_bit/bottom_side = 1
0:0/0/terrains_peering_bit/left_side = 1
0:0/0/terrains_peering_bit/top_side = 1
1:0/0 = 0
1:0/0/terrain_set = 0
1:0/0/terrain = 1
1:0/0/physics_layer_0/linear_velocity = Vector2(0, 0)
1:0/0/physics_layer_0/angular_velocity = 0.0
1:0/0/physics_layer_0/polygon_0/points = PackedVector2Array(-27, -26.5, -20, -32, 32, -32, 32, 32, -32, 32, -32, -20)
1:0/0/terrains_peering_bit/right_side = 0
1:0/0/terrains_peering_bit/bottom_right_corner = 1
1:0/0/terrains_peering_bit/bottom_side = 1
2:0/0 = 0
2:0/0/terrain_set = 0
2:0/0/terrain = 1
2:0/0/physics_layer_0/linear_velocity = Vector2(0, 0)
2:0/0/physics_layer_0/angular_velocity = 0.0
2:0/0/physics_layer_0/polygon_0/points = PackedVector2Array(-32, -32, 32, -32, 32, 32, -32, 32)
2:0/0/terrains_peering_bit/right_side = 0
2:0/0/terrains_peering_bit/bottom_side = 1
2:0/0/terrains_peering_bit/left_side = 0
3:0/0 = 0
3:0/0/terrain_set = 0
3:0/0/terrain = 1
3:0/0/physics_layer_0/linear_velocity = Vector2(0, 0)
3:0/0/physics_layer_0/angular_velocity = 0.0
3:0/0/physics_layer_0/polygon_0/points = PackedVector2Array(-32, -32, 21, -32, 28.5, -26.75, 32, -20.5, 32, 32, -32, 32)
3:0/0/terrains_peering_bit/bottom_side = 1
3:0/0/terrains_peering_bit/bottom_left_corner = 1
3:0/0/terrains_peering_bit/left_side = 0
4:0/0 = 0
4:0/0/terrain_set = 0
4:0/0/terrain = 1
4:0/0/physics_layer_0/linear_velocity = Vector2(0, 0)
4:0/0/physics_layer_0/angular_velocity = 0.0
4:0/0/physics_layer_0/polygon_0/points = PackedVector2Array(-32, -21.25, -28.5, -28.25, -20.5, -32, 20.25, -32, 28.5, -28.25, 32, -20.5, 32, 32, -32, 32)
4:0/0/terrains_peering_bit/bottom_side = 1
5:0/0 = 0
5:0/0/terrain_set = 0
5:0/0/terrain = 0
5:0/0/physics_layer_0/linear_velocity = Vector2(0, 0)
5:0/0/physics_layer_0/angular_velocity = 0.0
5:0/0/physics_layer_0/polygon_0/points = PackedVector2Array(-32, -21.5, -28.1075, -28.8146, -20.5, -32, 32, -32, 32, 14.4957, 21.5668, 14.8492, 9.19239, 20.1525, -7.95495, 21.0364, -16.7938, 16.4402, -32, 13.7886)
5:0/0/terrains_peering_bit/right_side = 0
6:0/0 = 0
6:0/0/terrain_set = 0
6:0/0/terrain = 0
6:0/0/physics_layer_0/linear_velocity = Vector2(0, 0)
6:0/0/physics_layer_0/angular_velocity = 0.0
6:0/0/physics_layer_0/polygon_0/points = PackedVector2Array(-32, -32, 32, -32, 32, 14.25, 19, 14.75, 9, 21.25, -7.75, 21.25, -16.75, 16.5, -32, 14.5)
6:0/0/terrains_peering_bit/right_side = 0
6:0/0/terrains_peering_bit/left_side = 0
7:0/0 = 0
7:0/0/terrain_set = 0
7:0/0/terrain = 0
7:0/0/physics_layer_0/linear_velocity = Vector2(0, 0)
7:0/0/physics_layer_0/angular_velocity = 0.0
7:0/0/physics_layer_0/polygon_0/points = PackedVector2Array(-32, -32, 20.6829, -32, 28.1075, -27.7539, 32, -19.4454, 32, 14.6725, 19.2687, 15.5563, 6.01041, 21.0364, -8.48528, 21.0364, -18.0312, 15.3796, -32, 13)
7:0/0/terrains_peering_bit/left_side = 0
8:0/next_alternative_id = 2
8:0/0 = 0
8:0/0/terrain_set = 0
8:0/0/terrain = 0
8:0/0/physics_layer_0/linear_velocity = Vector2(0, 0)
8:0/0/physics_layer_0/angular_velocity = 0.0
8:0/0/physics_layer_0/polygon_0/points = PackedVector2Array(-29.5, -27.5, -21, -32, 20.5, -32, 28.75, -27, 32, -19, 32, 15.5, 19.75, 15, 7.75, 20.5, -9.25, 20.75, -20.75, 15.5, -32, 13, -32, -19.75)
9:0/0 = 0
9:0/0/physics_layer_0/linear_velocity = Vector2(0, 0)
9:0/0/physics_layer_0/angular_velocity = 0.0
10:0/0 = 0
10:0/0/physics_layer_0/linear_velocity = Vector2(0, 0)
10:0/0/physics_layer_0/angular_velocity = 0.0
11:0/0 = 0
11:0/0/physics_layer_0/linear_velocity = Vector2(0, 0)
11:0/0/physics_layer_0/angular_velocity = 0.0
12:0/0 = 0
12:0/0/physics_layer_0/linear_velocity = Vector2(0, 0)
12:0/0/physics_layer_0/angular_velocity = 0.0
13:0/0 = 0
13:0/0/physics_layer_0/linear_velocity = Vector2(0, 0)
13:0/0/physics_layer_0/angular_velocity = 0.0
14:0/0 = 0
14:0/0/physics_layer_0/linear_velocity = Vector2(0, 0)
14:0/0/physics_layer_0/angular_velocity = 0.0
15:0/0 = 0
15:0/0/physics_layer_0/linear_velocity = Vector2(0, 0)
15:0/0/physics_layer_0/angular_velocity = 0.0
16:0/0 = 0
16:0/0/physics_layer_0/linear_velocity = Vector2(0, 0)
16:0/0/physics_layer_0/angular_velocity = 0.0
17:0/0 = 0
17:0/0/physics_layer_0/linear_velocity = Vector2(0, 0)
17:0/0/physics_layer_0/angular_velocity = 0.0
18:0/0 = 0
18:0/0/physics_layer_0/linear_velocity = Vector2(0, 0)
18:0/0/physics_layer_0/angular_velocity = 0.0
19:0/0 = 0
19:0/0/physics_layer_0/linear_velocity = Vector2(0, 0)
19:0/0/physics_layer_0/angular_velocity = 0.0
20:0/0 = 0
20:0/0/physics_layer_0/linear_velocity = Vector2(0, 0)
20:0/0/physics_layer_0/angular_velocity = 0.0
21:0/0 = 0
21:0/0/physics_layer_0/linear_velocity = Vector2(0, 0)
21:0/0/physics_layer_0/angular_velocity = 0.0
0:1/0 = 0
0:1/0/terrain_set = 0
0:1/0/terrain = 1
0:1/0/probability = 0.15
0:1/0/physics_layer_0/linear_velocity = Vector2(0, 0)
0:1/0/physics_layer_0/angular_velocity = 0.0
0:1/0/physics_layer_0/polygon_0/points = PackedVector2Array(-32, -32, 32, -32, 32, 32, -32, 32)
0:1/0/terrains_peering_bit/right_side = 1
0:1/0/terrains_peering_bit/bottom_side = 1
0:1/0/terrains_peering_bit/left_side = 1
0:1/0/terrains_peering_bit/top_side = 1
1:1/0 = 0
1:1/0/terrain_set = 0
1:1/0/terrain = 0
1:1/0/physics_layer_0/linear_velocity = Vector2(0, 0)
1:1/0/physics_layer_0/angular_velocity = 0.0
1:1/0/physics_layer_0/polygon_0/points = PackedVector2Array(32, -32, 32, 32, -32, 32)
1:1/0/terrains_peering_bit/right_side = 0
1:1/0/terrains_peering_bit/bottom_right_corner = 1
1:1/0/terrains_peering_bit/bottom_side = 1
2:1/0 = 0
2:1/0/terrain_set = 0
2:1/0/terrain = 0
2:1/0/physics_layer_0/linear_velocity = Vector2(0, 0)
2:1/0/physics_layer_0/angular_velocity = 0.0
2:1/0/physics_layer_0/polygon_0/points = PackedVector2Array(32, 32, -32, 32, -32, -32)
2:1/0/terrains_peering_bit/bottom_side = 1
2:1/0/terrains_peering_bit/bottom_left_corner = 1
2:1/0/terrains_peering_bit/left_side = 0
3:1/0 = 0
3:1/0/terrain_set = 0
3:1/0/terrain = 0
3:1/0/physics_layer_0/linear_velocity = Vector2(0, 0)
3:1/0/physics_layer_0/angular_velocity = 0.0
3:1/0/physics_layer_0/polygon_0/points = PackedVector2Array(32, 32, -32, 32, 32, -32)
3:1/0/terrains_peering_bit/right_side = 0
3:1/0/terrains_peering_bit/bottom_right_corner = 1
3:1/0/terrains_peering_bit/bottom_side = 0
4:1/0 = 0
4:1/0/terrain_set = 0
4:1/0/physics_layer_0/linear_velocity = Vector2(0, 0)
4:1/0/physics_layer_0/angular_velocity = 0.0
4:1/0/physics_layer_0/polygon_0/points = PackedVector2Array(-32, -32, 32, 32, -32, 32)
4:1/0/terrains_peering_bit/bottom_side = 0
4:1/0/terrains_peering_bit/bottom_left_corner = 1
4:1/0/terrains_peering_bit/left_side = 0
5:1/0 = 0
5:1/0/terrain_set = 0
5:1/0/terrain = 0
5:1/0/physics_layer_0/linear_velocity = Vector2(0, 0)
5:1/0/physics_layer_0/angular_velocity = 0.0
5:1/0/physics_layer_0/polygon_0/points = PackedVector2Array(-32, -32, 32, -32, 32, 32, -32, 32)
5:1/0/terrains_peering_bit/right_side = 1
5:1/0/terrains_peering_bit/bottom_side = 1
5:1/0/terrains_peering_bit/left_side = 0
5:1/0/terrains_peering_bit/top_side = 1
6:1/0 = 0
6:1/0/terrain_set = 0
6:1/0/terrain = 0
6:1/0/physics_layer_0/linear_velocity = Vector2(0, 0)
6:1/0/physics_layer_0/angular_velocity = 0.0
6:1/0/physics_layer_0/polygon_0/points = PackedVector2Array(-32, -32, 32, -32, 32, 32, -32, 32)
6:1/0/terrains_peering_bit/right_side = 0
6:1/0/terrains_peering_bit/bottom_side = 1
6:1/0/terrains_peering_bit/left_side = 1
6:1/0/terrains_peering_bit/top_side = 1
7:1/0 = 0
7:1/0/terrain_set = 0
7:1/0/terrain = 0
7:1/0/physics_layer_0/linear_velocity = Vector2(0, 0)
7:1/0/physics_layer_0/angular_velocity = 0.0
7:1/0/physics_layer_0/polygon_0/points = PackedVector2Array(-28, -27, -23.25, -32, 32, -32, 32, 32, 3.5, 27, -13, 16, -15, -2.5, -32, -4.5, -32, -20.25)
7:1/0/terrains_peering_bit/right_side = 0
7:1/0/terrains_peering_bit/bottom_right_corner = 1
8:1/0 = 0
8:1/0/terrain_set = 0
8:1/0/terrain = 0
8:1/0/physics_layer_0/linear_velocity = Vector2(0, 0)
8:1/0/physics_layer_0/angular_velocity = 0.0
8:1/0/physics_layer_0/polygon_0/points = PackedVector2Array(-32, -32, 21, -32, 27.5, -28, 32, -19.75, 32, -5, 17.5, -3.5, 10.5, 16, -3.5, 27.5, -32, 32)
8:1/0/terrains_peering_bit/bottom_left_corner = 1
8:1/0/terrains_peering_bit/left_side = 0
9:1/0 = 0
9:1/0/physics_layer_0/linear_velocity = Vector2(0, 0)
9:1/0/physics_layer_0/angular_velocity = 0.0
10:1/0 = 0
10:1/0/physics_layer_0/linear_velocity = Vector2(0, 0)
10:1/0/physics_layer_0/angular_velocity = 0.0
11:1/0 = 0
11:1/0/physics_layer_0/linear_velocity = Vector2(0, 0)
11:1/0/physics_layer_0/angular_velocity = 0.0
12:1/0 = 0
12:1/0/physics_layer_0/linear_velocity = Vector2(0, 0)
12:1/0/physics_layer_0/angular_velocity = 0.0
13:1/0 = 0
13:1/0/physics_layer_0/linear_velocity = Vector2(0, 0)
13:1/0/physics_layer_0/angular_velocity = 0.0
14:1/0 = 0
14:1/0/physics_layer_0/linear_velocity = Vector2(0, 0)
14:1/0/physics_layer_0/angular_velocity = 0.0
15:1/0 = 0
15:1/0/physics_layer_0/linear_velocity = Vector2(0, 0)
15:1/0/physics_layer_0/angular_velocity = 0.0
16:1/0 = 0
16:1/0/physics_layer_0/linear_velocity = Vector2(0, 0)
16:1/0/physics_layer_0/angular_velocity = 0.0
17:1/0 = 0
17:1/0/physics_layer_0/linear_velocity = Vector2(0, 0)
17:1/0/physics_layer_0/angular_velocity = 0.0
18:1/0 = 0
18:1/0/physics_layer_0/linear_velocity = Vector2(0, 0)
18:1/0/physics_layer_0/angular_velocity = 0.0
19:1/0 = 0
19:1/0/physics_layer_0/linear_velocity = Vector2(0, 0)
19:1/0/physics_layer_0/angular_velocity = 0.0
20:1/0 = 0
20:1/0/physics_layer_0/linear_velocity = Vector2(0, 0)
20:1/0/physics_layer_0/angular_velocity = 0.0
21:1/0 = 0
21:1/0/physics_layer_0/linear_velocity = Vector2(0, 0)
21:1/0/physics_layer_0/angular_velocity = 0.0
0:2/0 = 0
0:2/0/terrain_set = 0
0:2/0/terrain = 1
0:2/0/probability = 0.15
0:2/0/physics_layer_0/linear_velocity = Vector2(0, 0)
0:2/0/physics_layer_0/angular_velocity = 0.0
0:2/0/physics_layer_0/polygon_0/points = PackedVector2Array(-32, -32, 32, -32, 32, 32, -32, 32)
0:2/0/terrains_peering_bit/right_side = 1
0:2/0/terrains_peering_bit/bottom_side = 1
0:2/0/terrains_peering_bit/left_side = 1
0:2/0/terrains_peering_bit/top_side = 1
1:2/0 = 0
1:2/0/terrain_set = 0
1:2/0/terrain = 1
1:2/0/physics_layer_0/linear_velocity = Vector2(0, 0)
1:2/0/physics_layer_0/angular_velocity = 0.0
1:2/0/physics_layer_0/polygon_0/points = PackedVector2Array(-32, -32, 32, -32, 32, 32, -32, 32)
1:2/0/terrains_peering_bit/right_side = 1
1:2/0/terrains_peering_bit/bottom_right_corner = 1
1:2/0/terrains_peering_bit/bottom_side = 1
1:2/0/terrains_peering_bit/bottom_left_corner = 1
1:2/0/terrains_peering_bit/left_side = 0
1:2/0/terrains_peering_bit/top_side = 0
1:2/0/terrains_peering_bit/top_right_corner = 0
2:2/0 = 0
2:2/0/terrain_set = 0
2:2/0/terrain = 1
2:2/0/physics_layer_0/linear_velocity = Vector2(0, 0)
2:2/0/physics_layer_0/angular_velocity = 0.0
2:2/0/physics_layer_0/polygon_0/points = PackedVector2Array(-32, -32, 32, -32, 32, 32, -32, 32)
2:2/0/terrains_peering_bit/right_side = 1
2:2/0/terrains_peering_bit/bottom_right_corner = 1
2:2/0/terrains_peering_bit/bottom_side = 1
2:2/0/terrains_peering_bit/bottom_left_corner = 1
2:2/0/terrains_peering_bit/left_side = 1
2:2/0/terrains_peering_bit/top_left_corner = 1
2:2/0/terrains_peering_bit/top_side = 0
3:2/0 = 0
3:2/0/terrain_set = 0
3:2/0/terrain = 1
3:2/0/physics_layer_0/linear_velocity = Vector2(0, 0)
3:2/0/physics_layer_0/angular_velocity = 0.0
3:2/0/physics_layer_0/polygon_0/points = PackedVector2Array(-32, -32, 32, -32, 32, 32, -32, 32)
4:2/0 = 0
4:2/0/terrain_set = 0
4:2/0/terrain = 1
4:2/0/physics_layer_0/linear_velocity = Vector2(0, 0)
4:2/0/physics_layer_0/angular_velocity = 0.0
4:2/0/physics_layer_0/polygon_0/points = PackedVector2Array(-32, -32, 32, -32, 32, 32, -32, 32)
5:2/0 = 0
5:2/0/terrain_set = 0
5:2/0/terrain = 0
5:2/0/physics_layer_0/linear_velocity = Vector2(0, 0)
5:2/0/physics_layer_0/angular_velocity = 0.0
5:2/0/physics_layer_0/polygon_0/points = PackedVector2Array(-32, -32, 32, -32, 32, 32, -32, 32)
5:2/0/terrains_peering_bit/bottom_right_corner = 1
5:2/0/terrains_peering_bit/bottom_side = 1
5:2/0/terrains_peering_bit/bottom_left_corner = 1
6:2/0 = 0
6:2/0/terrain_set = 0
6:2/0/terrain = 0
6:2/0/physics_layer_0/linear_velocity = Vector2(0, 0)
6:2/0/physics_layer_0/angular_velocity = 0.0
6:2/0/physics_layer_0/polygon_0/points = PackedVector2Array(-32, -32, 32, -32, 32, 32, -32, 32)
6:2/0/terrains_peering_bit/bottom_right_corner = 1
6:2/0/terrains_peering_bit/bottom_side = 1
6:2/0/terrains_peering_bit/bottom_left_corner = 1
7:2/0 = 0
7:2/0/terrain_set = 0
7:2/0/terrain = 0
7:2/0/physics_layer_0/linear_velocity = Vector2(0, 0)
7:2/0/physics_layer_0/angular_velocity = 0.0
7:2/0/physics_layer_0/polygon_0/points = PackedVector2Array(-32, -32, 32, -32, 32, 32, -12, -1.5, -32, -4.5)
7:2/0/terrains_peering_bit/right_side = 0
7:2/0/terrains_peering_bit/bottom_right_corner = 1
8:2/0 = 0
8:2/0/terrain_set = 0
8:2/0/terrain = 0
8:2/0/physics_layer_0/linear_velocity = Vector2(0, 0)
8:2/0/physics_layer_0/angular_velocity = 0.0
8:2/0/physics_layer_0/polygon_0/points = PackedVector2Array(-32, -32, 32, -32, 32, -4.5, 12, 0.5, -32, 32)
8:2/0/terrains_peering_bit/bottom_left_corner = 1
8:2/0/terrains_peering_bit/left_side = 0
9:2/0 = 0
9:2/0/physics_layer_0/linear_velocity = Vector2(0, 0)
9:2/0/physics_layer_0/angular_velocity = 0.0
10:2/0 = 0
10:2/0/physics_layer_0/linear_velocity = Vector2(0, 0)
10:2/0/physics_layer_0/angular_velocity = 0.0
11:2/0 = 0
11:2/0/physics_layer_0/linear_velocity = Vector2(0, 0)
11:2/0/physics_layer_0/angular_velocity = 0.0
12:2/0 = 0
12:2/0/physics_layer_0/linear_velocity = Vector2(0, 0)
12:2/0/physics_layer_0/angular_velocity = 0.0
13:2/0 = 0
13:2/0/physics_layer_0/linear_velocity = Vector2(0, 0)
13:2/0/physics_layer_0/angular_velocity = 0.0
14:2/0 = 0
14:2/0/physics_layer_0/linear_velocity = Vector2(0, 0)
14:2/0/physics_layer_0/angular_velocity = 0.0
15:2/0 = 0
15:2/0/physics_layer_0/linear_velocity = Vector2(0, 0)
15:2/0/physics_layer_0/angular_velocity = 0.0
16:2/0 = 0
16:2/0/physics_layer_0/linear_velocity = Vector2(0, 0)
16:2/0/physics_layer_0/angular_velocity = 0.0
17:2/0 = 0
17:2/0/physics_layer_0/linear_velocity = Vector2(0, 0)
17:2/0/physics_layer_0/angular_velocity = 0.0
18:2/0 = 0
18:2/0/physics_layer_0/linear_velocity = Vector2(0, 0)
18:2/0/physics_layer_0/angular_velocity = 0.0
19:2/0 = 0
19:2/0/physics_layer_0/linear_velocity = Vector2(0, 0)
19:2/0/physics_layer_0/angular_velocity = 0.0
20:2/0 = 0
20:2/0/physics_layer_0/linear_velocity = Vector2(0, 0)
20:2/0/physics_layer_0/angular_velocity = 0.0
21:2/0 = 0
21:2/0/physics_layer_0/linear_velocity = Vector2(0, 0)
21:2/0/physics_layer_0/angular_velocity = 0.0
0:3/0 = 0
0:3/0/terrain_set = 0
0:3/0/physics_layer_0/linear_velocity = Vector2(0, 0)
0:3/0/physics_layer_0/angular_velocity = 0.0
0:3/0/physics_layer_0/polygon_0/points = PackedVector2Array(-32, -32, 32, -32, 32, 32, -32, 32)
1:3/0 = 0
1:3/0/terrain_set = 0
1:3/0/physics_layer_0/linear_velocity = Vector2(0, 0)
1:3/0/physics_layer_0/angular_velocity = 0.0
1:3/0/physics_layer_0/polygon_0/points = PackedVector2Array(-28.25, -28.25, -19, -32, 32, -32, 32, 32, -32, 32, -32, -18.25)
2:3/0 = 0
2:3/0/terrain_set = 0
2:3/0/physics_layer_0/linear_velocity = Vector2(0, 0)
2:3/0/physics_layer_0/angular_velocity = 0.0
2:3/0/physics_layer_0/polygon_0/points = PackedVector2Array(-32, -32, 32, -32, 32, 32, -32, 32)
3:3/0 = 0
3:3/0/terrain_set = 0
3:3/0/physics_layer_0/linear_velocity = Vector2(0, 0)
3:3/0/physics_layer_0/angular_velocity = 0.0
3:3/0/physics_layer_0/polygon_0/points = PackedVector2Array(-32, -32, 20.25, -32, 28, -28, 32, -20.5, 32, 32, -32, 32)
4:3/0 = 0
4:3/0/terrain_set = 0
4:3/0/physics_layer_0/linear_velocity = Vector2(0, 0)
4:3/0/physics_layer_0/angular_velocity = 0.0
4:3/0/physics_layer_0/polygon_0/points = PackedVector2Array(-28.75, -28.75, -19, -32, 20.5, -32, 28.5, -28.25, 32, -21.5, 32, 32, -32, 32, -32, -20.5)
5:3/0 = 0
5:3/0/terrain_set = 0
5:3/0/physics_layer_0/linear_velocity = Vector2(0, 0)
5:3/0/physics_layer_0/angular_velocity = 0.0
6:3/0 = 0
6:3/0/terrain_set = 0
6:3/0/physics_layer_0/linear_velocity = Vector2(0, 0)
6:3/0/physics_layer_0/angular_velocity = 0.0
7:3/0 = 0
7:3/0/terrain_set = 0
7:3/0/physics_layer_0/linear_velocity = Vector2(0, 0)
7:3/0/physics_layer_0/angular_velocity = 0.0
8:3/0 = 0
8:3/0/terrain_set = 0
8:3/0/physics_layer_0/linear_velocity = Vector2(0, 0)
8:3/0/physics_layer_0/angular_velocity = 0.0
9:3/0 = 0
9:3/0/physics_layer_0/linear_velocity = Vector2(0, 0)
9:3/0/physics_layer_0/angular_velocity = 0.0
10:3/0 = 0
10:3/0/physics_layer_0/linear_velocity = Vector2(0, 0)
10:3/0/physics_layer_0/angular_velocity = 0.0
11:3/0 = 0
11:3/0/physics_layer_0/linear_velocity = Vector2(0, 0)
11:3/0/physics_layer_0/angular_velocity = 0.0
12:3/0 = 0
12:3/0/physics_layer_0/linear_velocity = Vector2(0, 0)
12:3/0/physics_layer_0/angular_velocity = 0.0
13:3/0 = 0
13:3/0/physics_layer_0/linear_velocity = Vector2(0, 0)
13:3/0/physics_layer_0/angular_velocity = 0.0
14:3/0 = 0
14:3/0/physics_layer_0/linear_velocity = Vector2(0, 0)
14:3/0/physics_layer_0/angular_velocity = 0.0
15:3/0 = 0
15:3/0/physics_layer_0/linear_velocity = Vector2(0, 0)
15:3/0/physics_layer_0/angular_velocity = 0.0
16:3/0 = 0
16:3/0/physics_layer_0/linear_velocity = Vector2(0, 0)
16:3/0/physics_layer_0/angular_velocity = 0.0
17:3/0 = 0
17:3/0/physics_layer_0/linear_velocity = Vector2(0, 0)
17:3/0/physics_layer_0/angular_velocity = 0.0
18:3/0 = 0
18:3/0/physics_layer_0/linear_velocity = Vector2(0, 0)
18:3/0/physics_layer_0/angular_velocity = 0.0
19:3/0 = 0
19:3/0/physics_layer_0/linear_velocity = Vector2(0, 0)
19:3/0/physics_layer_0/angular_velocity = 0.0
20:3/0 = 0
20:3/0/physics_layer_0/linear_velocity = Vector2(0, 0)
20:3/0/physics_layer_0/angular_velocity = 0.0
21:3/0 = 0
21:3/0/physics_layer_0/linear_velocity = Vector2(0, 0)
21:3/0/physics_layer_0/angular_velocity = 0.0
0:4/0 = 0
0:4/0/terrain_set = 0
0:4/0/physics_layer_0/linear_velocity = Vector2(0, 0)
0:4/0/physics_layer_0/angular_velocity = 0.0
0:4/0/physics_layer_0/polygon_0/points = PackedVector2Array(-32, -32, 32, -32, 32, 32, -32, 32)
1:4/0 = 0
1:4/0/terrain_set = 0
1:4/0/physics_layer_0/linear_velocity = Vector2(0, 0)
1:4/0/physics_layer_0/angular_velocity = 0.0
1:4/0/physics_layer_0/polygon_0/points = PackedVector2Array(32, -32, 32, 32, -32, 32)
2:4/0 = 0
2:4/0/terrain_set = 0
2:4/0/physics_layer_0/linear_velocity = Vector2(0, 0)
2:4/0/physics_layer_0/angular_velocity = 0.0
2:4/0/physics_layer_0/polygon_0/points = PackedVector2Array(-32, -32, 32, 32, -32, 32)
3:4/0 = 0
3:4/0/terrain_set = 0
3:4/0/physics_layer_0/linear_velocity = Vector2(0, 0)
3:4/0/physics_layer_0/angular_velocity = 0.0
3:4/0/physics_layer_0/polygon_0/points = PackedVector2Array(32, -32, 32, 32, -32, 32)
4:4/0 = 0
4:4/0/terrain_set = 0
4:4/0/physics_layer_0/linear_velocity = Vector2(0, 0)
4:4/0/physics_layer_0/angular_velocity = 0.0
4:4/0/physics_layer_0/polygon_0/points = PackedVector2Array(-32, -32, 32, 32, -32, 32)
5:4/0 = 0
5:4/0/terrain_set = 0
5:4/0/physics_layer_0/linear_velocity = Vector2(0, 0)
5:4/0/physics_layer_0/angular_velocity = 0.0
5:4/0/physics_layer_0/polygon_0/points = PackedVector2Array(-32, -32, 32, -32, 32, 32, -32, 32)
6:4/0 = 0
6:4/0/terrain_set = 0
6:4/0/physics_layer_0/linear_velocity = Vector2(0, 0)
6:4/0/physics_layer_0/angular_velocity = 0.0
6:4/0/physics_layer_0/polygon_0/points = PackedVector2Array(-32, -32, 32, -32, 32, 32, -32, 32)
7:4/0 = 0
7:4/0/terrain_set = 0
7:4/0/physics_layer_0/linear_velocity = Vector2(0, 0)
7:4/0/physics_layer_0/angular_velocity = 0.0
7:4/0/physics_layer_0/polygon_0/points = PackedVector2Array(-32, -32, 32, -32, 32, 32, -32, 32)
8:4/0 = 0
8:4/0/terrain_set = 0
8:4/0/physics_layer_0/linear_velocity = Vector2(0, 0)
8:4/0/physics_layer_0/angular_velocity = 0.0
9:4/0 = 0
9:4/0/physics_layer_0/linear_velocity = Vector2(0, 0)
9:4/0/physics_layer_0/angular_velocity = 0.0
10:4/0 = 0
10:4/0/physics_layer_0/linear_velocity = Vector2(0, 0)
10:4/0/physics_layer_0/angular_velocity = 0.0
11:4/0 = 0
11:4/0/physics_layer_0/linear_velocity = Vector2(0, 0)
11:4/0/physics_layer_0/angular_velocity = 0.0
12:4/0 = 0
12:4/0/physics_layer_0/linear_velocity = Vector2(0, 0)
12:4/0/physics_layer_0/angular_velocity = 0.0
13:4/0 = 0
13:4/0/physics_layer_0/linear_velocity = Vector2(0, 0)
13:4/0/physics_layer_0/angular_velocity = 0.0
14:4/0 = 0
14:4/0/physics_layer_0/linear_velocity = Vector2(0, 0)
14:4/0/physics_layer_0/angular_velocity = 0.0
15:4/0 = 0
15:4/0/physics_layer_0/linear_velocity = Vector2(0, 0)
15:4/0/physics_layer_0/angular_velocity = 0.0
16:4/0 = 0
16:4/0/physics_layer_0/linear_velocity = Vector2(0, 0)
16:4/0/physics_layer_0/angular_velocity = 0.0
17:4/0 = 0
17:4/0/physics_layer_0/linear_velocity = Vector2(0, 0)
17:4/0/physics_layer_0/angular_velocity = 0.0
18:4/0 = 0
18:4/0/physics_layer_0/linear_velocity = Vector2(0, 0)
18:4/0/physics_layer_0/angular_velocity = 0.0
19:4/0 = 0
19:4/0/physics_layer_0/linear_velocity = Vector2(0, 0)
19:4/0/physics_layer_0/angular_velocity = 0.0
21:4/0 = 0
21:4/0/physics_layer_0/linear_velocity = Vector2(0, 0)
21:4/0/physics_layer_0/angular_velocity = 0.0
0:5/0 = 0
0:5/0/terrain_set = 0
0:5/0/physics_layer_0/linear_velocity = Vector2(0, 0)
0:5/0/physics_layer_0/angular_velocity = 0.0
0:5/0/physics_layer_0/polygon_0/points = PackedVector2Array(-32, -32, 32, -32, 32, 32, -32, 32)
1:5/0 = 0
1:5/0/terrain_set = 0
1:5/0/physics_layer_0/linear_velocity = Vector2(0, 0)
1:5/0/physics_layer_0/angular_velocity = 0.0
1:5/0/physics_layer_0/polygon_0/points = PackedVector2Array(-32, -32, 32, -32, 32, 32, -32, 32)
2:5/0 = 0
2:5/0/terrain_set = 0
2:5/0/physics_layer_0/linear_velocity = Vector2(0, 0)
2:5/0/physics_layer_0/angular_velocity = 0.0
2:5/0/physics_layer_0/polygon_0/points = PackedVector2Array(-32, -32, 32, -32, 32, 32, -32, 32)
3:5/0 = 0
3:5/0/terrain_set = 0
3:5/0/physics_layer_0/linear_velocity = Vector2(0, 0)
3:5/0/physics_layer_0/angular_velocity = 0.0
3:5/0/physics_layer_0/polygon_0/points = PackedVector2Array(-32, -32, 32, -32, 32, 32, -32, 32)
4:5/0 = 0
4:5/0/terrain_set = 0
4:5/0/physics_layer_0/linear_velocity = Vector2(0, 0)
4:5/0/physics_layer_0/angular_velocity = 0.0
4:5/0/physics_layer_0/polygon_0/points = PackedVector2Array(-32, -32, 32, -32, 32, 32, -32, 32)
5:5/0 = 0
5:5/0/terrain_set = 0
5:5/0/physics_layer_0/linear_velocity = Vector2(0, 0)
5:5/0/physics_layer_0/angular_velocity = 0.0
5:5/0/physics_layer_0/polygon_0/points = PackedVector2Array(-32, -32, 32, -32, 32, 32, -32, 32)
6:5/0 = 0
6:5/0/terrain_set = 0
6:5/0/physics_layer_0/linear_velocity = Vector2(0, 0)
6:5/0/physics_layer_0/angular_velocity = 0.0
6:5/0/physics_layer_0/polygon_0/points = PackedVector2Array(-32, -32, 32, -32, 32, 32, -32, 32)
7:5/0 = 0
7:5/0/terrain_set = 0
7:5/0/physics_layer_0/linear_velocity = Vector2(0, 0)
7:5/0/physics_layer_0/angular_velocity = 0.0
7:5/0/physics_layer_0/polygon_0/points = PackedVector2Array(-28.2843, -27.0468, -23, -32, 32, -32, 32, 32, -11.4905, 1.06066, -20.1525, 0.353554, -32, -7.07107, -32, -20.5)
8:5/0 = 0
8:5/0/terrain_set = 0
8:5/0/physics_layer_0/linear_velocity = Vector2(0, 0)
8:5/0/physics_layer_0/angular_velocity = 0.0
9:5/0 = 0
9:5/0/physics_layer_0/linear_velocity = Vector2(0, 0)
9:5/0/physics_layer_0/angular_velocity = 0.0
10:5/0 = 0
10:5/0/physics_layer_0/linear_velocity = Vector2(0, 0)
10:5/0/physics_layer_0/angular_velocity = 0.0
11:5/0 = 0
11:5/0/physics_layer_0/linear_velocity = Vector2(0, 0)
11:5/0/physics_layer_0/angular_velocity = 0.0
12:5/0 = 0
12:5/0/physics_layer_0/linear_velocity = Vector2(0, 0)
12:5/0/physics_layer_0/angular_velocity = 0.0
13:5/0 = 0
13:5/0/physics_layer_0/linear_velocity = Vector2(0, 0)
13:5/0/physics_layer_0/angular_velocity = 0.0
14:5/0 = 0
14:5/0/physics_layer_0/linear_velocity = Vector2(0, 0)
14:5/0/physics_layer_0/angular_velocity = 0.0
15:5/0 = 0
15:5/0/physics_layer_0/linear_velocity = Vector2(0, 0)
15:5/0/physics_layer_0/angular_velocity = 0.0
16:5/0 = 0
16:5/0/physics_layer_0/linear_velocity = Vector2(0, 0)
16:5/0/physics_layer_0/angular_velocity = 0.0
17:5/0 = 0
17:5/0/physics_layer_0/linear_velocity = Vector2(0, 0)
17:5/0/physics_layer_0/angular_velocity = 0.0
18:5/0 = 0
18:5/0/physics_layer_0/linear_velocity = Vector2(0, 0)
18:5/0/physics_layer_0/angular_velocity = 0.0
19:5/0 = 0
19:5/0/physics_layer_0/linear_velocity = Vector2(0, 0)
19:5/0/physics_layer_0/angular_velocity = 0.0
20:5/0 = 0
20:5/0/physics_layer_0/linear_velocity = Vector2(0, 0)
20:5/0/physics_layer_0/angular_velocity = 0.0
21:5/0 = 0
21:5/0/physics_layer_0/linear_velocity = Vector2(0, 0)
21:5/0/physics_layer_0/angular_velocity = 0.0
0:6/0 = 0
0:6/0/physics_layer_0/linear_velocity = Vector2(0, 0)
0:6/0/physics_layer_0/angular_velocity = 0.0
0:6/0/physics_layer_0/polygon_0/points = PackedVector2Array(-32, -32, 32, -32, 32, 32, -32, 32)
1:6/0 = 0
1:6/0/physics_layer_0/linear_velocity = Vector2(0, 0)
1:6/0/physics_layer_0/angular_velocity = 0.0
1:6/0/physics_layer_0/polygon_0/points = PackedVector2Array(-28.25, -28.25, -19, -32, 32, -32, 32, 32, -32, 32, -32, -18.25)
2:6/0 = 0
2:6/0/physics_layer_0/linear_velocity = Vector2(0, 0)
2:6/0/physics_layer_0/angular_velocity = 0.0
2:6/0/physics_layer_0/polygon_0/points = PackedVector2Array(-32, -32, 32, -32, 32, 32, -32, 32)
3:6/0 = 0
3:6/0/physics_layer_0/linear_velocity = Vector2(0, 0)
3:6/0/physics_layer_0/angular_velocity = 0.0
3:6/0/physics_layer_0/polygon_0/points = PackedVector2Array(-32, -32, 20.25, -32, 28, -28, 32, -20.5, 32, 32, -32, 32)
4:6/0 = 0
4:6/0/physics_layer_0/linear_velocity = Vector2(0, 0)
4:6/0/physics_layer_0/angular_velocity = 0.0
4:6/0/physics_layer_0/polygon_0/points = PackedVector2Array(-28.75, -28.75, -19, -32, 20.5, -32, 28.5, -28.25, 32, -21.5, 32, 32, -32, 32, -32, -20.5)
5:6/0 = 0
5:6/0/physics_layer_0/linear_velocity = Vector2(0, 0)
5:6/0/physics_layer_0/angular_velocity = 0.0
5:6/0/physics_layer_0/polygon_0/points = PackedVector2Array(-28, -28, -20.5, -32, 32, -32, 32, 13.5, 27, 11.5, 15.75, 17.75, 5.75, 10.75, -6.75, 17.25, -17, 11, -26, 18.25, -32, 14.5, -32, -19.5)
6:6/0 = 0
6:6/0/physics_layer_0/linear_velocity = Vector2(0, 0)
6:6/0/physics_layer_0/angular_velocity = 0.0
6:6/0/physics_layer_0/polygon_0/points = PackedVector2Array(-32, -32, 32, -32, 32, 14.5, 26, 12, 14, 17.75, 6, 11.5, -6, 16.25, -15.75, 11.75, -27, 16.25, -32, 15.25)
7:6/0 = 0
7:6/0/physics_layer_0/linear_velocity = Vector2(0, 0)
7:6/0/physics_layer_0/angular_velocity = 0.0
7:6/0/physics_layer_0/polygon_0/points = PackedVector2Array(-32, -32, 21, -32, 29, -29, 32, -20.5, 32, 13, -32, 15)
8:6/0 = 0
8:6/0/physics_layer_0/linear_velocity = Vector2(0, 0)
8:6/0/physics_layer_0/angular_velocity = 0.0
9:6/0 = 0
9:6/0/physics_layer_0/linear_velocity = Vector2(0, 0)
9:6/0/physics_layer_0/angular_velocity = 0.0
10:6/0 = 0
10:6/0/physics_layer_0/linear_velocity = Vector2(0, 0)
10:6/0/physics_layer_0/angular_velocity = 0.0
11:6/0 = 0
11:6/0/physics_layer_0/linear_velocity = Vector2(0, 0)
11:6/0/physics_layer_0/angular_velocity = 0.0
12:6/0 = 0
12:6/0/physics_layer_0/linear_velocity = Vector2(0, 0)
12:6/0/physics_layer_0/angular_velocity = 0.0
13:6/0 = 0
13:6/0/physics_layer_0/linear_velocity = Vector2(0, 0)
13:6/0/physics_layer_0/angular_velocity = 0.0
14:6/0 = 0
14:6/0/physics_layer_0/linear_velocity = Vector2(0, 0)
14:6/0/physics_layer_0/angular_velocity = 0.0
15:6/0 = 0
15:6/0/physics_layer_0/linear_velocity = Vector2(0, 0)
15:6/0/physics_layer_0/angular_velocity = 0.0
16:6/0 = 0
16:6/0/physics_layer_0/linear_velocity = Vector2(0, 0)
16:6/0/physics_layer_0/angular_velocity = 0.0
17:6/0 = 0
17:6/0/physics_layer_0/linear_velocity = Vector2(0, 0)
17:6/0/physics_layer_0/angular_velocity = 0.0
18:6/0 = 0
18:6/0/physics_layer_0/linear_velocity = Vector2(0, 0)
18:6/0/physics_layer_0/angular_velocity = 0.0
19:6/0 = 0
19:6/0/physics_layer_0/linear_velocity = Vector2(0, 0)
19:6/0/physics_layer_0/angular_velocity = 0.0
20:6/0 = 0
20:6/0/physics_layer_0/linear_velocity = Vector2(0, 0)
20:6/0/physics_layer_0/angular_velocity = 0.0
21:6/0 = 0
21:6/0/physics_layer_0/linear_velocity = Vector2(0, 0)
21:6/0/physics_layer_0/angular_velocity = 0.0
0:7/0 = 0
0:7/0/physics_layer_0/linear_velocity = Vector2(0, 0)
0:7/0/physics_layer_0/angular_velocity = 0.0
0:7/0/physics_layer_0/polygon_0/points = PackedVector2Array(-32, -32, 32, -32, 32, 32, -32, 32)
1:7/0 = 0
1:7/0/physics_layer_0/linear_velocity = Vector2(0, 0)
1:7/0/physics_layer_0/angular_velocity = 0.0
1:7/0/physics_layer_0/polygon_0/points = PackedVector2Array(32, -32, 32, 32, -32, 32)
2:7/0 = 0
2:7/0/physics_layer_0/linear_velocity = Vector2(0, 0)
2:7/0/physics_layer_0/angular_velocity = 0.0
2:7/0/physics_layer_0/polygon_0/points = PackedVector2Array(-32, -32, 32, 32, -32, 32)
3:7/0 = 0
3:7/0/physics_layer_0/linear_velocity = Vector2(0, 0)
3:7/0/physics_layer_0/angular_velocity = 0.0
3:7/0/physics_layer_0/polygon_0/points = PackedVector2Array(32, -32, 32, 32, -32, 32)
4:7/0 = 0
4:7/0/physics_layer_0/linear_velocity = Vector2(0, 0)
4:7/0/physics_layer_0/angular_velocity = 0.0
4:7/0/physics_layer_0/polygon_0/points = PackedVector2Array(-32, -32, 32, 32, -32, 32)
5:7/0 = 0
5:7/0/physics_layer_0/linear_velocity = Vector2(0, 0)
5:7/0/physics_layer_0/angular_velocity = 0.0
5:7/0/physics_layer_0/polygon_0/points = PackedVector2Array(-32, -32, 32, -32, 32, 32, -32, 32)
6:7/0 = 0
6:7/0/physics_layer_0/linear_velocity = Vector2(0, 0)
6:7/0/physics_layer_0/angular_velocity = 0.0
6:7/0/physics_layer_0/polygon_0/points = PackedVector2Array(-32, -32, 32, -32, 32, 32, -32, 32)
7:7/0 = 0
7:7/0/physics_layer_0/linear_velocity = Vector2(0, 0)
7:7/0/physics_layer_0/angular_velocity = 0.0
8:7/0 = 0
8:7/0/physics_layer_0/linear_velocity = Vector2(0, 0)
8:7/0/physics_layer_0/angular_velocity = 0.0
9:7/0 = 0
9:7/0/physics_layer_0/linear_velocity = Vector2(0, 0)
9:7/0/physics_layer_0/angular_velocity = 0.0
10:7/0 = 0
10:7/0/physics_layer_0/linear_velocity = Vector2(0, 0)
10:7/0/physics_layer_0/angular_velocity = 0.0
11:7/0 = 0
11:7/0/physics_layer_0/linear_velocity = Vector2(0, 0)
11:7/0/physics_layer_0/angular_velocity = 0.0
12:7/0 = 0
12:7/0/physics_layer_0/linear_velocity = Vector2(0, 0)
12:7/0/physics_layer_0/angular_velocity = 0.0
13:7/0 = 0
13:7/0/physics_layer_0/linear_velocity = Vector2(0, 0)
13:7/0/physics_layer_0/angular_velocity = 0.0
14:7/0 = 0
14:7/0/physics_layer_0/linear_velocity = Vector2(0, 0)
14:7/0/physics_layer_0/angular_velocity = 0.0
15:7/0 = 0
15:7/0/physics_layer_0/linear_velocity = Vector2(0, 0)
15:7/0/physics_layer_0/angular_velocity = 0.0
16:7/0 = 0
16:7/0/physics_layer_0/linear_velocity = Vector2(0, 0)
16:7/0/physics_layer_0/angular_velocity = 0.0
17:7/0 = 0
17:7/0/physics_layer_0/linear_velocity = Vector2(0, 0)
17:7/0/physics_layer_0/angular_velocity = 0.0
18:7/0 = 0
18:7/0/physics_layer_0/linear_velocity = Vector2(0, 0)
18:7/0/physics_layer_0/angular_velocity = 0.0
19:7/0 = 0
19:7/0/physics_layer_0/linear_velocity = Vector2(0, 0)
19:7/0/physics_layer_0/angular_velocity = 0.0
20:7/0 = 0
20:7/0/physics_layer_0/linear_velocity = Vector2(0, 0)
20:7/0/physics_layer_0/angular_velocity = 0.0
21:7/0 = 0
21:7/0/physics_layer_0/linear_velocity = Vector2(0, 0)
21:7/0/physics_layer_0/angular_velocity = 0.0
0:8/0 = 0
0:8/0/physics_layer_0/linear_velocity = Vector2(0, 0)
0:8/0/physics_layer_0/angular_velocity = 0.0
0:8/0/physics_layer_0/polygon_0/points = PackedVector2Array(-32, -32, 32, -32, 32, 32, -32, 32)
1:8/0 = 0
1:8/0/physics_layer_0/linear_velocity = Vector2(0, 0)
1:8/0/physics_layer_0/angular_velocity = 0.0
1:8/0/physics_layer_0/polygon_0/points = PackedVector2Array(-32, -32, 32, -32, 32, 32, -32, 32)
2:8/0 = 0
2:8/0/physics_layer_0/linear_velocity = Vector2(0, 0)
2:8/0/physics_layer_0/angular_velocity = 0.0
2:8/0/physics_layer_0/polygon_0/points = PackedVector2Array(-32, -32, 32, -32, 32, 32, -32, 32)
3:8/0 = 0
3:8/0/physics_layer_0/linear_velocity = Vector2(0, 0)
3:8/0/physics_layer_0/angular_velocity = 0.0
3:8/0/physics_layer_0/polygon_0/points = PackedVector2Array(-32, -32, 32, -32, 32, 32, -32, 32)
4:8/0 = 0
4:8/0/physics_layer_0/linear_velocity = Vector2(0, 0)
4:8/0/physics_layer_0/angular_velocity = 0.0
4:8/0/physics_layer_0/polygon_0/points = PackedVector2Array(-32, -32, 32, -32, 32, 32, -32, 32)
5:8/0 = 0
5:8/0/physics_layer_0/linear_velocity = Vector2(0, 0)
5:8/0/physics_layer_0/angular_velocity = 0.0
5:8/0/physics_layer_0/polygon_0/points = PackedVector2Array(-32, -32, 32, -32, 32, 32, -32, 32)
6:8/0 = 0
6:8/0/physics_layer_0/linear_velocity = Vector2(0, 0)
6:8/0/physics_layer_0/angular_velocity = 0.0
6:8/0/physics_layer_0/polygon_0/points = PackedVector2Array(-32, -32, 32, -32, 32, 32, -32, 32)
7:8/0 = 0
7:8/0/physics_layer_0/linear_velocity = Vector2(0, 0)
7:8/0/physics_layer_0/angular_velocity = 0.0
7:8/0/physics_layer_0/polygon_0/points = PackedVector2Array(-28.2843, -27.0468, -23, -32, 32, -32, 32, 32, -23.75, 1.75, -32, -3.5, -32, -20.5)
8:8/0 = 0
8:8/0/physics_layer_0/linear_velocity = Vector2(0, 0)
8:8/0/physics_layer_0/angular_velocity = 0.0
9:8/0 = 0
9:8/0/physics_layer_0/linear_velocity = Vector2(0, 0)
9:8/0/physics_layer_0/angular_velocity = 0.0
10:8/0 = 0
10:8/0/physics_layer_0/linear_velocity = Vector2(0, 0)
10:8/0/physics_layer_0/angular_velocity = 0.0
11:8/0 = 0
11:8/0/physics_layer_0/linear_velocity = Vector2(0, 0)
11:8/0/physics_layer_0/angular_velocity = 0.0
12:8/0 = 0
12:8/0/physics_layer_0/linear_velocity = Vector2(0, 0)
12:8/0/physics_layer_0/angular_velocity = 0.0
13:8/0 = 0
13:8/0/physics_layer_0/linear_velocity = Vector2(0, 0)
13:8/0/physics_layer_0/angular_velocity = 0.0
14:8/0 = 0
14:8/0/physics_layer_0/linear_velocity = Vector2(0, 0)
14:8/0/physics_layer_0/angular_velocity = 0.0
15:8/0 = 0
15:8/0/physics_layer_0/linear_velocity = Vector2(0, 0)
15:8/0/physics_layer_0/angular_velocity = 0.0
16:8/0 = 0
16:8/0/physics_layer_0/linear_velocity = Vector2(0, 0)
16:8/0/physics_layer_0/angular_velocity = 0.0
17:8/0 = 0
17:8/0/physics_layer_0/linear_velocity = Vector2(0, 0)
17:8/0/physics_layer_0/angular_velocity = 0.0
18:8/0 = 0
18:8/0/physics_layer_0/linear_velocity = Vector2(0, 0)
18:8/0/physics_layer_0/angular_velocity = 0.0
19:8/0 = 0
19:8/0/physics_layer_0/linear_velocity = Vector2(0, 0)
19:8/0/physics_layer_0/angular_velocity = 0.0
20:8/0 = 0
20:8/0/physics_layer_0/linear_velocity = Vector2(0, 0)
20:8/0/physics_layer_0/angular_velocity = 0.0
21:8/0 = 0
21:8/0/physics_layer_0/linear_velocity = Vector2(0, 0)
21:8/0/physics_layer_0/angular_velocity = 0.0
0:9/0 = 0
0:9/0/physics_layer_0/linear_velocity = Vector2(0, 0)
0:9/0/physics_layer_0/angular_velocity = 0.0
0:9/0/physics_layer_0/polygon_0/points = PackedVector2Array(-32, -32, 32, -32, 32, 32, -32, 32)
1:9/0 = 0
1:9/0/physics_layer_0/linear_velocity = Vector2(0, 0)
1:9/0/physics_layer_0/angular_velocity = 0.0
1:9/0/physics_layer_0/polygon_0/points = PackedVector2Array(-28.25, -28.25, -19, -32, 32, -32, 32, 32, -32, 32, -32, -18.25)
2:9/0 = 0
2:9/0/physics_layer_0/linear_velocity = Vector2(0, 0)
2:9/0/physics_layer_0/angular_velocity = 0.0
2:9/0/physics_layer_0/polygon_0/points = PackedVector2Array(-32, -32, 32, -32, 32, 32, -32, 32)
3:9/0 = 0
3:9/0/physics_layer_0/linear_velocity = Vector2(0, 0)
3:9/0/physics_layer_0/angular_velocity = 0.0
3:9/0/physics_layer_0/polygon_0/points = PackedVector2Array(-32, -32, 20.25, -32, 28, -28, 32, -20.5, 32, 32, -32, 32)
4:9/0 = 0
4:9/0/physics_layer_0/linear_velocity = Vector2(0, 0)
4:9/0/physics_layer_0/angular_velocity = 0.0
4:9/0/physics_layer_0/polygon_0/points = PackedVector2Array(-28.75, -28.75, -19, -32, 20.5, -32, 28.5, -28.25, 32, -21.5, 32, 32, -32, 32, -32, -20.5)
5:9/0 = 0
5:9/0/physics_layer_0/linear_velocity = Vector2(0, 0)
5:9/0/physics_layer_0/angular_velocity = 0.0
6:9/0 = 0
6:9/0/physics_layer_0/linear_velocity = Vector2(0, 0)
6:9/0/physics_layer_0/angular_velocity = 0.0
7:9/0 = 0
7:9/0/physics_layer_0/linear_velocity = Vector2(0, 0)
7:9/0/physics_layer_0/angular_velocity = 0.0
8:9/0 = 0
8:9/0/physics_layer_0/linear_velocity = Vector2(0, 0)
8:9/0/physics_layer_0/angular_velocity = 0.0
9:9/0 = 0
9:9/0/physics_layer_0/linear_velocity = Vector2(0, 0)
9:9/0/physics_layer_0/angular_velocity = 0.0
10:9/0 = 0
10:9/0/physics_layer_0/linear_velocity = Vector2(0, 0)
10:9/0/physics_layer_0/angular_velocity = 0.0
11:9/0 = 0
11:9/0/physics_layer_0/linear_velocity = Vector2(0, 0)
11:9/0/physics_layer_0/angular_velocity = 0.0
12:9/0 = 0
12:9/0/physics_layer_0/linear_velocity = Vector2(0, 0)
12:9/0/physics_layer_0/angular_velocity = 0.0
13:9/0 = 0
13:9/0/physics_layer_0/linear_velocity = Vector2(0, 0)
13:9/0/physics_layer_0/angular_velocity = 0.0
14:9/0 = 0
14:9/0/physics_layer_0/linear_velocity = Vector2(0, 0)
14:9/0/physics_layer_0/angular_velocity = 0.0
15:9/0 = 0
15:9/0/physics_layer_0/linear_velocity = Vector2(0, 0)
15:9/0/physics_layer_0/angular_velocity = 0.0
16:9/0 = 0
16:9/0/physics_layer_0/linear_velocity = Vector2(0, 0)
16:9/0/physics_layer_0/angular_velocity = 0.0
17:9/0 = 0
17:9/0/physics_layer_0/linear_velocity = Vector2(0, 0)
17:9/0/physics_layer_0/angular_velocity = 0.0
18:9/0 = 0
18:9/0/physics_layer_0/linear_velocity = Vector2(0, 0)
18:9/0/physics_layer_0/angular_velocity = 0.0
19:9/0 = 0
19:9/0/physics_layer_0/linear_velocity = Vector2(0, 0)
19:9/0/physics_layer_0/angular_velocity = 0.0
20:9/0 = 0
20:9/0/physics_layer_0/linear_velocity = Vector2(0, 0)
20:9/0/physics_layer_0/angular_velocity = 0.0
21:9/0 = 0
21:9/0/physics_layer_0/linear_velocity = Vector2(0, 0)
21:9/0/physics_layer_0/angular_velocity = 0.0
0:10/0 = 0
0:10/0/physics_layer_0/linear_velocity = Vector2(0, 0)
0:10/0/physics_layer_0/angular_velocity = 0.0
0:10/0/physics_layer_0/polygon_0/points = PackedVector2Array(-32, -32, 32, -32, 32, 32, -32, 32)
1:10/0 = 0
1:10/0/physics_layer_0/linear_velocity = Vector2(0, 0)
1:10/0/physics_layer_0/angular_velocity = 0.0
2:10/0 = 0
2:10/0/physics_layer_0/linear_velocity = Vector2(0, 0)
2:10/0/physics_layer_0/angular_velocity = 0.0
3:10/0 = 0
3:10/0/physics_layer_0/linear_velocity = Vector2(0, 0)
3:10/0/physics_layer_0/angular_velocity = 0.0
4:10/0 = 0
4:10/0/physics_layer_0/linear_velocity = Vector2(0, 0)
4:10/0/physics_layer_0/angular_velocity = 0.0
5:10/0 = 0
5:10/0/physics_layer_0/linear_velocity = Vector2(0, 0)
5:10/0/physics_layer_0/angular_velocity = 0.0
5:10/0/physics_layer_0/polygon_0/points = PackedVector2Array(-32, -32, 32, -32, 32, 32, -32, 32)
6:10/0 = 0
6:10/0/physics_layer_0/linear_velocity = Vector2(0, 0)
6:10/0/physics_layer_0/angular_velocity = 0.0
6:10/0/physics_layer_0/polygon_0/points = PackedVector2Array(-32, -32, 32, -32, 32, 32, -32, 32)
7:10/0 = 0
7:10/0/physics_layer_0/linear_velocity = Vector2(0, 0)
7:10/0/physics_layer_0/angular_velocity = 0.0
8:10/0 = 0
8:10/0/physics_layer_0/linear_velocity = Vector2(0, 0)
8:10/0/physics_layer_0/angular_velocity = 0.0
9:10/0 = 0
9:10/0/physics_layer_0/linear_velocity = Vector2(0, 0)
9:10/0/physics_layer_0/angular_velocity = 0.0
10:10/0 = 0
10:10/0/physics_layer_0/linear_velocity = Vector2(0, 0)
10:10/0/physics_layer_0/angular_velocity = 0.0
11:10/0 = 0
11:10/0/physics_layer_0/linear_velocity = Vector2(0, 0)
11:10/0/physics_layer_0/angular_velocity = 0.0
12:10/0 = 0
12:10/0/physics_layer_0/linear_velocity = Vector2(0, 0)
12:10/0/physics_layer_0/angular_velocity = 0.0
13:10/0 = 0
13:10/0/physics_layer_0/linear_velocity = Vector2(0, 0)
13:10/0/physics_layer_0/angular_velocity = 0.0
14:10/0 = 0
14:10/0/physics_layer_0/linear_velocity = Vector2(0, 0)
14:10/0/physics_layer_0/angular_velocity = 0.0
15:10/0 = 0
15:10/0/physics_layer_0/linear_velocity = Vector2(0, 0)
15:10/0/physics_layer_0/angular_velocity = 0.0
16:10/0 = 0
16:10/0/physics_layer_0/linear_velocity = Vector2(0, 0)
16:10/0/physics_layer_0/angular_velocity = 0.0
17:10/0 = 0
17:10/0/physics_layer_0/linear_velocity = Vector2(0, 0)
17:10/0/physics_layer_0/angular_velocity = 0.0
18:10/0 = 0
18:10/0/physics_layer_0/linear_velocity = Vector2(0, 0)
18:10/0/physics_layer_0/angular_velocity = 0.0
19:10/0 = 0
19:10/0/physics_layer_0/linear_velocity = Vector2(0, 0)
19:10/0/physics_layer_0/angular_velocity = 0.0
20:10/0 = 0
20:10/0/physics_layer_0/linear_velocity = Vector2(0, 0)
20:10/0/physics_layer_0/angular_velocity = 0.0
21:10/0 = 0
21:10/0/physics_layer_0/linear_velocity = Vector2(0, 0)
21:10/0/physics_layer_0/angular_velocity = 0.0
0:11/0 = 0
0:11/0/physics_layer_0/linear_velocity = Vector2(0, 0)
0:11/0/physics_layer_0/angular_velocity = 0.0
0:11/0/physics_layer_0/polygon_0/points = PackedVector2Array(-32, -32, 32, -32, 32, 32, -32, 32)
1:11/0 = 0
1:11/0/physics_layer_0/linear_velocity = Vector2(0, 0)
1:11/0/physics_layer_0/angular_velocity = 0.0
1:11/0/physics_layer_0/polygon_0/points = PackedVector2Array(-32, -32, 32, -32, 32, 32, -32, 32)
2:11/0 = 0
2:11/0/physics_layer_0/linear_velocity = Vector2(0, 0)
2:11/0/physics_layer_0/angular_velocity = 0.0
2:11/0/physics_layer_0/polygon_0/points = PackedVector2Array(-32, -32, 32, -32, 32, 32, -32, 32)
3:11/0 = 0
3:11/0/physics_layer_0/linear_velocity = Vector2(0, 0)
3:11/0/physics_layer_0/angular_velocity = 0.0
3:11/0/physics_layer_0/polygon_0/points = PackedVector2Array(-32, -32, 32, -32, 32, 32, -32, 32)
4:11/0 = 0
4:11/0/physics_layer_0/linear_velocity = Vector2(0, 0)
4:11/0/physics_layer_0/angular_velocity = 0.0
4:11/0/physics_layer_0/polygon_0/points = PackedVector2Array(-32, -32, 32, -32, 32, 32, -32, 32)
5:11/0 = 0
5:11/0/physics_layer_0/linear_velocity = Vector2(0, 0)
5:11/0/physics_layer_0/angular_velocity = 0.0
5:11/0/physics_layer_0/polygon_0/points = PackedVector2Array(-32, -32, 32, -32, 32, 32, -32, 32)
6:11/0 = 0
6:11/0/physics_layer_0/linear_velocity = Vector2(0, 0)
6:11/0/physics_layer_0/angular_velocity = 0.0
6:11/0/physics_layer_0/polygon_0/points = PackedVector2Array(-32, -32, 32, -32, 32, 32, -32, 32)
7:11/0 = 0
7:11/0/physics_layer_0/linear_velocity = Vector2(0, 0)
7:11/0/physics_layer_0/angular_velocity = 0.0
7:11/0/physics_layer_0/polygon_0/points = PackedVector2Array(-28.2843, -27.0468, -23, -32, 32, -32, 32, 32, -32, -4.5, -32, -20.5)
8:11/0 = 0
8:11/0/physics_layer_0/linear_velocity = Vector2(0, 0)
8:11/0/physics_layer_0/angular_velocity = 0.0
9:11/0 = 0
9:11/0/physics_layer_0/linear_velocity = Vector2(0, 0)
9:11/0/physics_layer_0/angular_velocity = 0.0
10:11/0 = 0
10:11/0/physics_layer_0/linear_velocity = Vector2(0, 0)
10:11/0/physics_layer_0/angular_velocity = 0.0
11:11/0 = 0
11:11/0/physics_layer_0/linear_velocity = Vector2(0, 0)
11:11/0/physics_layer_0/angular_velocity = 0.0
12:11/0 = 0
12:11/0/physics_layer_0/linear_velocity = Vector2(0, 0)
12:11/0/physics_layer_0/angular_velocity = 0.0
13:11/0 = 0
13:11/0/physics_layer_0/linear_velocity = Vector2(0, 0)
13:11/0/physics_layer_0/angular_velocity = 0.0
14:11/0 = 0
14:11/0/physics_layer_0/linear_velocity = Vector2(0, 0)
14:11/0/physics_layer_0/angular_velocity = 0.0
15:11/0 = 0
15:11/0/physics_layer_0/linear_velocity = Vector2(0, 0)
15:11/0/physics_layer_0/angular_velocity = 0.0
16:11/0 = 0
16:11/0/physics_layer_0/linear_velocity = Vector2(0, 0)
16:11/0/physics_layer_0/angular_velocity = 0.0
17:11/0 = 0
17:11/0/physics_layer_0/linear_velocity = Vector2(0, 0)
17:11/0/physics_layer_0/angular_velocity = 0.0
18:11/0 = 0
18:11/0/physics_layer_0/linear_velocity = Vector2(0, 0)
18:11/0/physics_layer_0/angular_velocity = 0.0
19:11/0 = 0
19:11/0/physics_layer_0/linear_velocity = Vector2(0, 0)
19:11/0/physics_layer_0/angular_velocity = 0.0
20:11/0 = 0
20:11/0/physics_layer_0/linear_velocity = Vector2(0, 0)
20:11/0/physics_layer_0/angular_velocity = 0.0
21:11/0 = 0
21:11/0/physics_layer_0/linear_velocity = Vector2(0, 0)
21:11/0/physics_layer_0/angular_velocity = 0.0

[sub_resource type="TileSet" id="TileSet_c60q0"]
tile_size = Vector2i(64, 64)
uv_clipping = true
physics_layer_0/collision_layer = 1
terrain_set_0/mode = 0
terrain_set_0/terrain_0/name = "RedLand"
terrain_set_0/terrain_0/color = Color(0.698039, 0.113725, 0.215686, 1)
terrain_set_0/terrain_1/name = "RedDirt"
terrain_set_0/terrain_1/color = Color(0.462745, 0.054902, 0.0941176, 1)
sources/1 = SubResource("TileSetAtlasSource_gjqgm")
pattern_0 = SubResource("TileMapPattern_htu13")

[node name="tileMapTutorial" type="TileMap"]
position = Vector2(1, 0)
tile_set = SubResource("TileSet_c60q0")
format = 2
layer_0/tile_data = PackedInt32Array(-131071, 327681, 0, -131070, 393217, 0, -131069, 458753, 0, -262140, 327681, 0, -262139, 393217, 0, -262138, 65537, 2, -262137, 131073, 2, -262136, 524289, 1, -196602, 1, 0, -131066, 1, 0, -65530, 1, 0, -65529, 1, 0, -131065, 1, 2, -196601, 1, 2, -327674, 1, 2, -327673, 1, 0, -393209, 131073, 0, -393210, 131073, 0, -393211, 327681, 0, -393208, 458753, 0)
